# vtk DataFile Version 2.0
ASCII
DATASET POLYDATA
POINTS 8 float
0.0 0.0 0.0
1.0 0.0 0.0
1.0 1.0 0.0
0.0 1.0 0.0
0.0 0.0 1.0
1.0 0.0 1.0
1.0 1.0 1.0
0.0 1.0 1.0

POLYGONS 6 30
4 0 1 2 3
4 4 5 6 7
4 0 1 5 4
4 2 3 7 6
4 0 4 7 3
4 1 2 6 5

CELL_DATA 6
SCALARS cell_scalars int 1
LOOKUP_TABLE default
0
1
2
3
4
5

FIELD FieldData 2
cellIds 1 6 int
0 1 2 3 4 5
faceAttributes 4 6 float
0.0 1.0 2.0 3.0
1.0 2.0 2.0 3.0
2.0 3.0 2.0 3.0
3.0 4.0 2.0 3.0
4.0 5.0 2.0 3.0
5.0 6.0 2.0 3.0