# vtk DataFile Version 3.0
A dataset with one polyline and no attributes
ASCII

DATASET POLYDATA
POINTS 1000 float
0.774293 0.500600 0.874551
0.141254 0.698715 0.605223
0.284461 0.772490 0.313970
0.296143 0.917905 0.514579
0.515633 0.815348 0.063229
0.600384 0.414420 0.058795
0.454191 0.023516 0.019454
0.822646 0.982883 0.766849
0.352300 0.463946 0.659483
0.978824 0.368710 0.230003
0.455240 0.779675 0.573766
0.482239 0.379428 0.767908
0.042713 0.949527 0.631520
0.354044 0.815070 0.723442
0.740774 0.899616 0.917626
0.912582 0.726025 0.900366
0.349369 0.568833 0.314414
0.748326 0.265442 0.538451
0.773908 0.955752 0.554549
0.729382 0.475101 0.788971
0.998048 0.570372 0.038817
0.261540 0.295586 0.974756
0.553468 0.826241 0.777875
0.691411 0.281441 0.033712
0.877073 0.425625 0.219538
0.740614 0.563747 0.193194
0.046878 0.344943 0.372599
0.273367 0.398175 0.784662
0.155615 0.989519 0.067476
0.045628 0.605576 0.221170
0.753246 0.681848 0.494573
0.158766 0.200523 0.713884
0.812033 0.635334 0.263934
0.860885 0.887661 0.698352
0.181129 0.856686 0.366801
0.690650 0.583301 0.624711
0.761881 0.869674 0.861669
0.372555 0.465414 0.633562
0.524820 0.644192 0.691562
0.825018 0.478220 0.399545
0.212911 0.373684 0.884977
0.277915 0.294043 0.194361
0.677247 0.948774 0.259142
0.291553 0.727658 0.189382
0.045750 0.089099 0.136924
0.457292 0.175175 0.036741
0.614632 0.694943 0.776949
0.209373 0.402308 0.489581
0.864630 0.116906 0.299020
0.302180 0.058743 0.634485
0.322897 0.576116 0.980421
0.042981 0.919556 0.962259
0.918456 0.761846 0.265422
0.418229 0.614631 0.140683
0.533232 0.626219 0.554232
0.257225 0.886778 0.538310
0.544276 0.746611 0.337443
0.029549 0.587340 0.772921
0.278913 0.375260 0.636275
0.748193 0.168417 0.933084
0.086470 0.437897 0.985730
0.372574 0.198648 0.672372
0.190188 0.329879 0.705506
0.539363 0.655718 0.701520
0.657690 0.684124 0.230529
0.762266 0.450651 0.555786
0.700574 0.849055 0.555376
0.816341 0.873490 0.327773
0.944739 0.327869 0.818779
0.524672 0.212205 0.752682
0.888997 0.849098 0.024905
0.388588 0.180216 0.785530
0.956820 0.457922 0.218647
0.518332 0.171589 0.793021
0.554594 0.157171 0.091066
0.059019 0.361423 0.127126
0.942584 0.641823 0.173588
0.465428 0.675635 0.889445
0.457193 0.284025 0.841535
0.290731 0.214514 0.991276
0.800142 0.308403 0.386681
0.247161 0.053204 0.534212
0.596533 0.754119 0.632818
0.468601 0.175504 0.095152
0.683121 0.702708 0.886029
0.059854 0.650893 0.536492
0.150000 0.216558 0.206277
0.995703 0.850826 0.848897
0.964139 0.971676 0.167711
0.646785 0.553464 0.476762
0.166234 0.525900 0.996086
0.912662 0.390046 0.774962
0.826614 0.077804 0.131249
0.850427 0.897970 0.104480
0.023662 0.536732 0.795200
0.654469 0.221435 0.193212
0.333324 0.198239 0.048617
0.508277 0.697408 0.318284
0.487608 0.457617 0.761412
0.217219 0.713923 0.333861
0.467447 0.321772 0.203245
0.023225 0.708824 0.061423
0.447098 0.194007 0.582233
0.339947 0.673412 0.983303
0.933952 0.098384 0.929245
0.436038 0.971086 0.894956
0.974949 0.096134 0.893361
0.850695 0.250819 0.611870
0.285306 0.390270 0.064373
0.693710 0.982296 0.235155
0.447497 0.430481 0.857789
0.538473 0.110931 0.180266
0.365036 0.044506 0.575932
0.245955 0.631641 0.778319
0.654624 0.299725 0.849637
0.237729 0.007379 0.149900
0.042906 0.262909 0.445027
0.755100 0.855141 0.739893
0.110492 0.262292 0.617952
0.386029 0.544895 0.600837
0.992929 0.534749 0.182175
0.484158 0.116819 0.239004
0.575914 0.300024 0.713646
0.077967 0.183960 0.400373
0.193304 0.285111 0.415575
0.035362 0.516162 0.514116
0.721483 0.647730 0.742258
0.060481 0.644560 0.378244
0.104716 0.557697 0.699510
0.546424 0.869096 0.969535
0.331404 0.670319 0.428425
0.848227 0.399288 0.948076
0.656503 0.264673 0.727528
0.312464 0.311381 0.560013
0.940267 0.292199 0.927314
0.664557 0.279413 0.105359
0.828610 0.624658 0.204424
0.485683 0.190703 0.799138
0.244099 0.318640 0.152880
0.417484 0.259087 0.030462
0.991350 0.594115 0.118285
0.599128 0.416970 0.526179
0.429453 0.120753 0.372359
0.569111 0.200161 0.820995
0.503801 0.138081 0.689473
0.616638 0.210073 0.506272
0.081699 0.676956 0.219813
0.347910 0.635247 0.790948
0.965110 0.328662 0.540790
0.703651 0.843825 0.583042
0.331018 0.792122 0.649120
0.880393 0.256947 0.387232
0.992338 0.448086 0.400507
0.580793 0.142866 0.580333
0.365318 0.616932 0.469101
0.717316 0.780611 0.069832
0.601119 0.661868 0.787572
0.429264 0.139227 0.575767
0.659944 0.838455 0.283233
0.602232 0.454944 0.397046
0.888814 0.072704 0.880942
0.575969 0.941617 0.679509
0.923785 0.425520 0.616377
0.161667 0.173089 0.494527
0.976712 0.018037 0.508200
0.111864 0.017793 0.000481
0.980230 0.481732 0.639039
0.548455 0.433835 0.400560
0.101515 0.963230 0.146921
0.106010 0.385429 0.044055
0.804507 0.278848 0.753908
0.237265 0.937474 0.416923
0.253994 0.626894 0.343499
0.843163 0.419038 0.263907
0.640006 0.914423 0.250228
0.052634 0.323998 0.412347
0.169658 0.966806 0.635012
0.936000 0.012956 0.729568
0.860903 0.502443 0.203154
0.155953 0.943885 0.597927
0.430292 0.048720 0.480078
0.487049 0.462905 0.047585
0.171658 0.947616 0.018934
0.019478 0.742153 0.376892
0.093724 0.595441 0.839545
0.976663 0.958768 0.085354
0.205681 0.283145 0.188430
0.267159 0.692773 0.414059
0.009880 0.256933 0.290334
0.015865 0.322783 0.560683
0.315539 0.249213 0.315284
0.882491 0.434281 0.196075
0.978434 0.448414 0.866158
0.443406 0.902147 0.184757
0.926516 0.803289 0.085448
0.084236 0.985146 0.414726
0.820636 0.174222 0.607111
0.123502 0.969778 0.980670
0.885212 0.386161 0.274301
0.160563 0.885493 0.489113
0.975578 0.727027 0.804313
0.100177 0.556956 0.832154
0.059623 0.064756 0.033137
0.916134 0.891023 0.409033
0.867499 0.738504 0.276358
0.057800 0.721072 0.928259
0.086562 0.443813 0.739329
0.907554 0.367314 0.284243
0.518636 0.536101 0.992452
0.295241 0.289739 0.102449
0.944592 0.625078 0.973470
0.729263 0.162786 0.241341
0.645840 0.330052 0.102107
0.929677 0.249756 0.532285
0.391882 0.366992 0.984951
0.834880 0.927762 0.471975
0.897962 0.128385 0.925704
0.583848 0.799704 0.973332
0.904985 0.468353 0.316599
0.906882 0.504831 0.635301
0.903196 0.767342 0.479108
0.055346 0.365876 0.498309
0.289143 0.413618 0.697091
0.047235 0.980494 0.739862
0.890860 0.169359 0.850617
0.247886 0.157520 0.109989
0.679442 0.144819 0.676110
0.233575 0.653078 0.903991
0.354586 0.214465 0.547313
0.887538 0.842319 0.695151
0.161804 0.660247 0.354314
0.193648 0.419496 0.954658
0.519590 0.276374 0.243588
0.138401 0.858328 0.068536
0.951590 0.190447 0.492877
0.162675 0.235943 0.105188
0.333679 0.175845 0.217326
0.409163 0.328893 0.394758
0.401904 0.004869 0.438009
0.219138 0.334470 0.497771
0.567717 0.903419 0.627469
0.669611 0.087207 0.719705
0.840881 0.173649 0.455272
0.442904 0.813585 0.665921
0.173013 0.635822 0.798806
0.226737 0.290546 0.302192
0.981608 0.124906 0.944505
0.975275 0.070105 0.562481
0.348073 0.457272 0.972001
0.391131 0.195960 0.784874
0.714858 0.424891 0.338889
0.813008 0.607643 0.510640
0.786442 0.608600 0.315600
0.699440 0.145217 0.810167
0.918975 0.154573 0.954847
0.313440 0.842727 0.497864
0.351202 0.557559 0.890267
0.748118 0.306432 0.309958
0.447141 0.145757 0.027388
0.212097 0.356983 0.178857
0.626194 0.637102 0.747256
0.952392 0.942723 0.098067
0.816856 0.892225 0.765159
0.311651 0.974046 0.085014
0.806294 0.042003 0.122586
0.926311 0.808922 0.054066
0.033504 0.289039 0.210165
0.648004 0.490097 0.385941
0.580387 0.685091 0.150344
0.314999 0.586334 0.268132
0.958376 0.480930 0.662590
0.642400 0.018476 0.146536
0.521201 0.262580 0.961350
0.569679 0.369627 0.314647
0.874282 0.248250 0.433763
0.728301 0.661100 0.378533
0.713642 0.465501 0.849859
0.927011 0.213986 0.807976
0.349163 0.347577 0.260100
0.355951 0.465053 0.380067
0.742771 0.117283 0.201953
0.316335 0.001738 0.681871
0.973530 0.285748 0.694517
0.695162 0.407366 0.832887
0.351320 0.598282 0.295121
0.973861 0.948573 0.004767
0.104961 0.452659 0.870495
0.400805 0.616786 0.927471
0.143959 0.222996 0.314309
0.214512 0.785648 0.170075
0.172194 0.867380 0.967341
0.434795 0.079490 0.412162
0.977743 0.613938 0.558967
0.742390 0.251557 0.509944
0.633368 0.295119 0.691493
0.693902 0.976625 0.839077
0.800947 0.519749 0.925670
0.694160 0.188641 0.845742
0.806811 0.259855 0.518467
0.975060 0.917196 0.386132
0.635344 0.729683 0.068781
0.933141 0.499579 0.313001
0.020439 0.326367 0.881275
0.976572 0.801245 0.156091
0.295220 0.689180 0.143680
0.165682 0.617732 0.284726
0.701040 0.396443 0.171977
0.579525 0.713177 0.442633
0.695394 0.949943 0.643815
0.922035 0.398871 0.644165
0.769464 0.212713 0.736182
0.134670 0.629851 0.090696
0.298841 0.074324 0.782125
0.478125 0.051923 0.588107
0.157412 0.528815 0.558307
0.221508 0.912837 0.203063
0.677624 0.866365 0.872662
0.749660 0.161525 0.137490
0.015241 0.203373 0.659622
0.854940 0.937769 0.760811
0.946425 0.051601 0.303394
0.556383 0.970143 0.378422
0.465471 0.455140 0.658016
0.991714 0.057086 0.467315
0.428019 0.792008 0.770708
0.884370 0.508316 0.953447
0.461583 0.143827 0.018022
0.552585 0.244549 0.755067
0.990601 0.405762 0.300882
0.834310 0.591518 0.928139
0.691337 0.796720 0.967361
0.512595 0.417337 0.935119
0.196767 0.048961 0.867545
0.065608 0.054324 0.045713
0.752947 0.775791 0.301519
0.500413 0.588615 0.547067
0.289617 0.743792 0.379038
0.586761 0.996977 0.101239
0.507229 0.171832 0.983034
0.865034 0.171040 0.405180
0.720084 0.691450 0.409312
0.457353 0.235835 0.824542
0.097469 0.880343 0.879789
0.455216 0.499104 0.300511
0.092556 0.481107 0.354587
0.915378 0.974166 0.450288
0.864015 0.118547 0.075470
0.258747 0.199999 0.854353
0.160280 0.225934 0.684993
0.500699 0.287205 0.157776
0.529037 0.704025 0.953596
0.872211 0.786190 0.151633
0.773648 0.722732 0.512267
0.426067 0.529459 0.111420
0.988861 0.566316 0.145279
0.843987 0.135859 0.462416
0.677580 0.904377 0.289999
0.516710 0.107730 0.354926
0.165585 0.792187 0.872201
0.855407 0.791945 0.472810
0.757692 0.584700 0.022876
0.358231 0.546944 0.471781
0.613251 0.456817 0.827643
0.159228 0.412262 0.153348
0.679566 0.336312 0.379542
0.139710 0.019457 0.516909
0.370374 0.834353 0.693433
0.746877 0.013842 0.519317
0.591527 0.527977 0.303829
0.454375 0.409022 0.316082
0.493769 0.457749 0.940294
0.740639 0.282099 0.113694
0.368683 0.078758 0.559191
0.441760 0.023752 0.010856
0.166424 0.080886 0.234658
0.523597 0.260485 0.880708
0.096633 0.913809 0.755719
0.815674 0.894389 0.230097
0.875189 0.253366 0.290988
0.403833 0.290759 0.365968
0.800442 0.407944 0.359832
0.132524 0.016852 0.711628
0.292634 0.273228 0.274202
0.838566 0.523064 0.804073
0.678462 0.925372 0.450265
0.880807 0.480696 0.407332
0.380480 0.937406 0.617271
0.646029 0.765839 0.243897
0.832501 0.419125 0.490706
0.481231 0.899097 0.417076
0.487981 0.072246 0.190162
0.140657 0.461194 0.995142
0.222293 0.429197 0.528289
0.006577 0.228343 0.456587
0.274113 0.446262 0.423829
0.538415 0.496515 0.286688
0.152798 0.775413 0.708684
0.083598 0.467366 0.667165
0.848429 0.498937 0.809096
0.404777 0.358879 0.701874
0.973993 0.516176 0.403354
0.751485 0.945978 0.036243
0.621199 0.856556 0.034231
0.066142 0.050993 0.508599
0.063792 0.899786 0.153836
0.670255 0.025431 0.331992
0.482841 0.867078 0.772059
0.641865 0.472804 0.358326
0.145646 0.233829 0.381019
0.861504 0.140100 0.880541
0.136852 0.263401 0.540156
0.013945 0.485341 0.176520
0.335609 0.552112 0.646466
0.070297 0.536200 0.169924
0.307122 0.062347 0.343851
0.658779 0.925826 0.612236
0.140375 0.945429 0.132143
0.238087 0.005630 0.254793
0.218257 0.259889 0.561102
0.936340 0.932289 0.933190
0.669720 0.810508 0.957381
0.229283 0.258308 0.703356
0.084081 0.235043 0.058704
0.093641 0.628155 0.032168
0.858425 0.444437 0.871587
0.667523 0.869106 0.890888
0.249672 0.535885 0.862429
0.501619 0.069833 0.828908
0.627287 0.792603 0.897237
0.685000 0.311791 0.594776
0.097149 0.665517 0.178862
0.410997 0.076027 0.647158
0.572897 0.222550 0.746526
0.184320 0.433955 0.172229
0.840519 0.407650 0.084014
0.088342 0.926933 0.176337
0.790244 0.576499 0.110722
0.661279 0.874495 0.537757
0.863113 0.811183 0.928100
0.567072 0.050816 0.218216
0.701929 0.569936 0.603734
0.940748 0.628605 0.595980
0.503937 0.432746 0.248868
0.393745 0.133289 0.572805
0.312542 0.762794 0.324331
0.745051 0.806879 0.088442
0.606615 0.175179 0.487177
0.882919 0.535871 0.100503
0.528770 0.312562 0.683854
0.931120 0.550185 0.165514
0.972672 0.598223 0.796868
0.119232 0.211554 0.388326
0.570630 0.909278 0.649558
0.484497 0.847469 0.238412
0.775065 0.341463 0.413278
0.697350 0.757368 0.068468
0.979578 0.700599 0.440117
0.513181 0.706475 0.396271
0.386230 0.370577 0.887246
0.010278 0.907902 0.768324
0.031492 0.740483 0.973960
0.386298 0.089890 0.212649
0.069654 0.204522 0.634762
0.004999 0.129954 0.549424
0.464887 0.297757 0.781144
0.215505 0.196531 0.344256
0.096919 0.855089 0.260487
0.462341 0.003637 0.581856
0.138143 0.415373 0.383805
0.874763 0.162657 0.902354
0.165967 0.100127 0.105777
0.837589 0.864272 0.674006
0.274172 0.083645 0.693247
0.355809 0.057745 0.599776
0.852040 0.209544 0.477508
0.804778 0.028245 0.783459
0.029051 0.593587 0.715071
0.974491 0.603331 0.848945
0.832744 0.971913 0.100488
0.448064 0.808031 0.875371
0.864765 0.532469 0.678009
0.181508 0.681957 0.399213
0.304339 0.313708 0.821091
0.465857 0.983362 0.450534
0.664922 0.432752 0.495924
0.351991 0.912627 0.662784
0.326629 0.104554 0.234896
0.160088 0.793595 0.622822
0.133592 0.263167 0.437204
0.871496 0.235525 0.377260
0.880718 0.013241 0.586005
0.193466 0.555338 0.025795
0.652777 0.357620 0.553876
0.249520 0.027706 0.563283
0.759812 0.726958 0.585946
0.479348 0.473800 0.060501
0.980284 0.788194 0.705561
0.373004 0.786558 0.186600
0.437694 0.141679 0.028662
0.471584 0.566183 0.318371
0.305199 0.907683 0.465929
0.460011 0.518243 0.390924
0.472566 0.823365 0.655391
0.564655 0.664028 0.108138
0.547805 0.544506 0.033968
0.989919 0.966305 0.447113
0.796599 0.195474 0.742157
0.774090 0.144940 0.669522
0.750992 0.971134 0.223066
0.252093 0.740222 0.121049
0.342862 0.666874 0.950300
0.072621 0.880230 0.610974
0.914362 0.848981 0.127530
0.097183 0.673475 0.745705
0.894826 0.845235 0.325145
0.377950 0.460050 0.538262
0.559504 0.267548 0.392437
0.417015 0.969249 0.323006
0.744775 0.117341 0.161348
0.068490 0.389450 0.014018
0.289644 0.880995 0.148553
0.083110 0.530958 0.277563
0.003540 0.095242 0.174603
0.188127 0.366073 0.059836
0.031236 0.092220 0.375047
0.812116 0.415488 0.314876
0.062896 0.579078 0.451771
0.001976 0.143783 0.313395
0.939999 0.242066 0.833696
0.449026 0.716249 0.142849
0.302834 0.113822 0.129589
0.820912 0.743468 0.688090
0.631972 0.617569 0.162671
0.081198 0.206050 0.809416
0.588163 0.856418 0.031766
0.030161 0.322293 0.624986
0.013266 0.867586 0.041901
0.665850 0.871584 0.650120
0.210407 0.662244 0.477844
0.487110 0.073639 0.836729
0.118498 0.453629 0.869040
0.388606 0.177276 0.518813
0.548782 0.511344 0.254335
0.357210 0.835273 0.712725
0.338853 0.039917 0.430400
0.776952 0.294381 0.474766
0.698448 0.636919 0.468335
0.891384 0.500453 0.809248
0.912936 0.146819 0.246509
0.423732 0.943720 0.776764
0.631444 0.284603 0.013186
0.556268 0.840302 0.190131
0.195408 0.769149 0.344762
0.516263 0.765609 0.337924
0.842006 0.657393 0.067249
0.701695 0.316863 0.250729
0.186233 0.480313 0.882015
0.904366 0.877840 0.806751
0.814344 0.554079 0.241007
0.211019 0.365250 0.263541
0.469023 0.209573 0.290403
0.716572 0.774140 0.110068
0.947315 0.395331 0.778186
0.617813 0.321898 0.450467
0.890722 0.319960 0.543756
0.322320 0.775295 0.740868
0.050121 0.550731 0.489004
0.698255 0.661819 0.895450
0.960440 0.339664 0.002047
0.529906 0.799121 0.260307
0.577532 0.824926 0.378931
0.600618 0.665179 0.423207
0.845585 0.200761 0.942187
0.230523 0.702120 0.925898
0.265437 0.879918 0.022830
0.033216 0.217135 0.430676
0.665697 0.249036 0.503770
0.579931 0.352452 0.609923
0.352115 0.104708 0.578526
0.474997 0.680414 0.886671
0.743327 0.605808 0.963041
0.547667 0.355237 0.586442
0.883960 0.131415 0.597579
0.194013 0.536493 0.852915
0.094929 0.221881 0.395597
0.633812 0.471914 0.999113
0.822813 0.329011 0.272760
0.924343 0.425999 0.613583
0.655783 0.300795 0.062945
0.281752 0.374968 0.782465
0.219085 0.752179 0.452663
0.333688 0.950577 0.248276
0.313649 0.083020 0.147281
0.956922 0.591385 0.941749
0.079093 0.164455 0.639912
0.334425 0.034213 0.797151
0.292385 0.073537 0.316059
0.280911 0.608583 0.003651
0.620179 0.175391 0.931752
0.595909 0.439989 0.698188
0.028232 0.582580 0.831600
0.982700 0.246610 0.869240
0.369561 0.682958 0.598279
0.769595 0.202735 0.413858
0.424852 0.389511 0.699013
0.992957 0.220168 0.057338
0.862032 0.679371 0.197680
0.875025 0.711109 0.500918
0.105887 0.866887 0.591996
0.760013 0.128444 0.958927
0.254229 0.889794 0.719922
0.801014 0.053338 0.192026
0.875119 0.417722 0.822928
0.840984 0.902413 0.292040
0.049263 0.295861 0.190856
0.486706 0.672560 0.827542
0.612678 0.692387 0.793670
0.028125 0.615080 0.294734
0.422179 0.875705 0.962568
0.100073 0.482267 0.430833
0.735586 0.652758 0.372158
0.654464 0.049114 0.250241
0.703729 0.829010 0.161140
0.985029 0.759983 0.049313
0.923455 0.214235 0.872645
0.129056 0.140704 0.289700
0.752916 0.707995 0.180014
0.865093 0.243939 0.158983
0.388401 0.724800 0.515546
0.620503 0.968095 0.923920
0.961124 0.505592 0.774232
0.743765 0.634340 0.677835
0.375323 0.278049 0.452225
0.171612 0.800699 0.345459
0.441126 0.092006 0.754958
0.612125 0.819188 0.470901
0.391591 0.861979 0.006259
0.016090 0.247673 0.476420
0.057027 0.650728 0.088749
0.444990 0.140805 0.649774
0.998443 0.862874 0.246228
0.672158 0.281063 0.516962
0.570344 0.866991 0.856331
0.950972 0.531606 0.157411
0.435938 0.786666 0.286879
0.780240 0.942945 0.800514
0.203595 0.880135 0.048983
0.488965 0.173984 0.183407
0.925331 0.554560 0.277674
0.985228 0.066308 0.684282
0.787288 0.002237 0.787047
0.031731 0.897308 0.228606
0.689935 0.742145 0.403831
0.961246 0.116033 0.913498
0.195733 0.613927 0.271599
0.944136 0.855762 0.939420
0.858277 0.934807 0.378636
0.631702 0.736201 0.843844
0.694296 0.810241 0.508435
0.920377 0.986745 0.254134
0.027342 0.166175 0.496131
0.561440 0.874256 0.810166
0.868747 0.210037 0.935047
0.584047 0.060783 0.713777
0.123694 0.433069 0.620399
0.198705 0.317896 0.785616
0.595529 0.582192 0.558896
0.256191 0.462509 0.569081
0.317409 0.357455 0.381381
0.311791 0.926268 0.318528
0.815861 0.161996 0.609455
0.966431 0.610819 0.460673
0.692876 0.659678 0.265602
0.155236 0.335153 0.144522
0.599855 0.475868 0.459841
0.440077 0.665832 0.987601
0.574549 0.849062 0.567640
0.855491 0.066124 0.309887
0.168069 0.705508 0.858167
0.677794 0.399112 0.074462
0.615386 0.189078 0.687939
0.050745 0.235058 0.452273
0.174515 0.986907 0.588756
0.166644 0.251027 0.594945
0.919998 0.008935 0.164927
0.062565 0.080193 0.730206
0.664850 0.779924 0.038443
0.298219 0.844863 0.391928
0.979454 0.542706 0.331974
0.807112 0.286811 0.282375
0.315573 0.608387 0.137146
0.451127 0.489621 0.940343
0.242441 0.541727 0.327596
0.844132 0.059676 0.982406
0.325285 0.984071 0.103129
0.321362 0.006606 0.732650
0.393754 0.469081 0.351895
0.362701 0.934525 0.876145
0.681890 0.060578 0.058872
0.637251 0.674385 0.888865
0.189389 0.030341 0.229811
0.406469 0.962031 0.878165
0.615307 0.966938 0.395363
0.982806 0.507593 0.544019
0.464716 0.323731 0.443063
0.484689 0.632751 0.581409
0.818874 0.604552 0.293500
0.465344 0.503541 0.537293
0.478934 0.530159 0.511967
0.668367 0.896919 0.189990
0.992390 0.190536 0.136088
0.257275 0.207183 0.789305
0.858469 0.080413 0.038961
0.387275 0.518542 0.832615
0.282419 0.686948 0.600512
0.201499 0.760600 0.679190
0.840823 0.363060 0.302275
0.964803 0.047357 0.453282
0.314357 0.110163 0.961953
0.878769 0.330625 0.092646
0.919467 0.401446 0.678799
0.852676 0.317284 0.931975
0.450656 0.007383 0.320348
0.825517 0.390982 0.836984
0.500183 0.659342 0.421999
0.981573 0.697165 0.782873
0.614246 0.367139 0.860548
0.973510 0.806141 0.608906
0.423070 0.028110 0.452189
0.688301 0.928131 0.932853
0.922643 0.290978 0.704963
0.212096 0.793823 0.695012
0.671875 0.242608 0.016169
0.514362 0.297365 0.046811
0.315925 0.910218 0.693896
0.256576 0.828145 0.408608
0.837679 0.462750 0.943487
0.562972 0.465058 0.159931
0.781580 0.808254 0.149637
0.885774 0.365115 0.174984
0.562018 0.951076 0.528514
0.091094 0.368352 0.293503
0.549848 0.448438 0.196757
0.843751 0.773861 0.493559
0.539401 0.104536 0.813037
0.772412 0.364908 0.902029
0.675283 0.582704 0.317994
0.134026 0.408566 0.799327
0.390190 0.533959 0.082742
0.501870 0.867079 0.319191
0.017184 0.233968 0.886595
0.039736 0.341110 0.892920
0.268519 0.733212 0.594236
0.296128 0.224003 0.997127
0.849542 0.908873 0.905904
0.409384 0.281546 0.142939
0.529578 0.122796 0.653086
0.845653 0.881190 0.136092
0.551363 0.537542 0.746343
0.519707 0.749455 0.033617
0.868788 0.055128 0.163541
0.651857 0.036458 0.986732
0.160413 0.100848 0.964504
0.879307 0.454224 0.452690
0.376973 0.845584 0.400608
0.433005 0.067323 0.525610
0.747823 0.805518 0.195172
0.599088 0.260648 0.375386
0.265462 0.548799 0.907363
0.292287 0.502260 0.947896
0.282145 0.216510 0.057234
0.030896 0.895161 0.597750
0.228710 0.798821 0.796493
0.261337 0.678668 0.760076
0.276966 0.451459 0.352853
0.557721 0.652538 0.324154
0.389187 0.070458 0.006329
0.196027 0.817096 0.723176
0.339545 0.670506 0.398641
0.560372 0.106176 0.216677
0.391051 0.833557 0.873345
0.857432 0.403631 0.985983
0.119913 0.440147 0.233073
0.080302 0.360328 0.912260
0.421677 0.903007 0.919804
0.533998 0.235576 0.932420
0.518944 0.186885 0.607351
0.335293 0.815039 0.325398
0.238326 0.064636 0.943782
0.665280 0.057871 0.983852
0.191756 0.623160 0.677100
0.945027 0.625805 0.016544
0.932582 0.327647 0.468626
0.109813 0.278545 0.283731
0.598710 0.839585 0.227987
0.200472 0.075831 0.402420
0.382061 0.145494 0.372347
0.642176 0.250756 0.909549
0.667164 0.223312 0.518957
0.662169 0.754204 0.120043
0.521493 0.964736 0.573843
0.495688 0.274974 0.315464
0.193080 0.602971 0.372287
0.223612 0.385673 0.287418
0.269624 0.009180 0.966294
0.421799 0.410019 0.300314
0.220659 0.441643 0.666944
0.179340 0.399153 0.022086
0.356119 0.423439 0.721961
0.361375 0.458220 0.054816
0.942933 0.934326 0.285346
0.422556 0.480678 0.178548
0.674179 0.673477 0.996311
0.750200 0.010822 0.580913
0.762447 0.211007 0.542563
0.606590 0.677022 0.879256
0.584094 0.058202 0.434503
0.289168 0.357871 0.542449
0.299168 0.638781 0.526954
0.309957 0.047892 0.665656
0.611843 0.830013 0.165514
0.078642 0.228236 0.240810
0.153931 0.555544 0.711293
0.235529 0.550216 0.989553
0.811011 0.703600 0.762790
0.459872 0.785861 0.544673
0.476824 0.151651 0.498525
0.593136 0.735540 0.301679
0.043334 0.240030 0.329753
0.930504 0.132271 0.011796
0.712867 0.478328 0.087609
0.446685 0.940771 0.580116
0.345199 0.575280 0.589783
0.233677 0.180546 0.632015
0.853238 0.473821 0.319956
0.397381 0.845346 0.396051
0.145131 0.663193 0.041666
0.295260 0.612123 0.308884
0.863364 0.763750 0.472352
0.113987 0.110712 0.430908
0.910037 0.464389 0.381093
0.908252 0.917488 0.517352
0.454045 0.709299 0.209223
0.587381 0.901012 0.818009
0.861436 0.959125 0.927335
0.928193 0.112818 0.956322
0.150059 0.527263 0.541302
0.463001 0.852882 0.354594
0.701632 0.183190 0.580161
0.496720 0.144636 0.763754
0.888361 0.731502 0.882215
0.661672 0.265371 0.698725
0.474757 0.018081 0.521486
0.999840 0.633421 0.882344
0.956010 0.111535 0.308140
0.313029 0.950176 0.926101
0.921445 0.878343 0.388650
0.423867 0.706475 0.651372
0.403845 0.255178 0.457464
0.736993 0.168555 0.070133
0.310809 0.708076 0.246622
0.962297 0.286512 0.311635
0.512977 0.654556 0.760860
0.621793 0.587916 0.745086
0.371063 0.888440 0.048349
0.571507 0.625562 0.767158
0.136149 0.720070 0.462503
0.332977 0.752148 0.896729
0.862925 0.116224 0.735984
0.905188 0.929025 0.488491
0.467353 0.418944 0.651302
0.552664 0.049728 0.607619
0.088572 0.394797 0.589748
0.568002 0.889349 0.302459
0.089764 0.219772 0.707611
0.194660 0.737591 0.779616
0.334412 0.180091 0.372095
0.815434 0.084008 0.107132
0.446013 0.757177 0.642198
0.851624 0.106248 0.106671
0.332164 0.198888 0.255385
0.667309 0.319472 0.797789
0.731882 0.543262 0.582724
0.794457 0.527562 0.243788
0.345095 0.281113 0.216562
0.701961 0.391139 0.630544
0.407062 0.601156 0.191642
0.404162 0.377279 0.782859
0.871825 0.047099 0.639089
0.494318 0.186965 0.032750
0.132784 0.642690 0.515206
0.081401 0.327511 0.781940
0.599672 0.870376 0.979472
0.094366 0.016410 0.992712
0.332629 0.963874 0.045958
0.252131 0.609552 0.233413
0.615688 0.231734 0.322845
0.561572 0.312168 0.103941
0.949089 0.614921 0.151258
0.867334 0.042417 0.036175
0.824896 0.085769 0.080377
0.393793 0.941940 0.121189
0.070336 0.359413 0.986411
0.346551 0.969124 0.696012
0.882624 0.307441 0.562744
0.410485 0.545068 0.232126
0.984679 0.315344 0.412906
0.183713 0.487228 0.254205
0.308710 0.079325 0.263202
0.404150 0.075899 0.312171
0.862759 0.950756 0.576677
0.748885 0.364298 0.700759
0.104666 0.240052 0.122935
0.207490 0.113530 0.466130
0.074138 0.517509 0.678051
0.371183 0.942719 0.559678
0.142505 0.201571 0.162339
0.177447 0.576850 0.076263
0.728341 0.569586 0.993826
0.202855 0.292108 0.934029
0.271373 0.021542 0.054561
0.120855 0.840190 0.824173
0.649300 0.420787 0.862115
0.960770 0.819649 0.131355
0.223342 0.505758 0.040322
0.885362 0.335277 0.525279
0.480172 0.950942 0.695794
0.000442 0.622303 0.292139
0.351431 0.364097 0.998483
0.095524 0.509047 0.122020
0.262927 0.146542 0.394771
0.382936 0.931816 0.756771
0.454467 0.941139 0.796277
0.562733 0.365647 0.811472
0.148918 0.922469 0.065294
0.791854 0.710728 0.291110
0.253677 0.406441 0.329173
0.680077 0.023001 0.088286
0.945371 0.896877 0.277465
0.880079 0.865903 0.790830
0.167612 0.649098 0.462850
0.793203 0.223179 0.283712
0.204382 0.578336 0.519546
0.488817 0.354269 0.540652
0.193629 0.843612 0.865745
0.408175 0.683205 0.818751
0.997062 0.628013 0.195394
0.161005 0.189574 0.654111
0.259954 0.641111 0.716766
0.906590 0.482456 0.248406
0.947679 0.842839 0.499469
0.920461 0.902946 0.711868
0.487823 0.991367 0.179635
0.601580 0.336959 0.473414
0.175173 0.504245 0.036109
0.313976 0.060063 0.111734
0.776212 0.880104 0.012180
0.841943 0.227320 0.046392
0.128615 0.917778 0.668224
0.812277 0.048039 0.435677
0.575215 0.033068 0.837564
0.954624 0.774424 0.695567
0.002508 0.804346 0.327453
0.448796 0.073248 0.136964
0.677009 0.996262 0.224401
0.329641 0.111244 0.120647
0.448150 0.163150 0.467642
0.644914 0.565167 0.823889
0.520635 0.456294 0.287414
0.736493 0.053082 0.534672
0.463748 0.163491 0.210945
0.002851 0.337498 0.583899
0.916251 0.154257 0.802308
0.449339 0.519339 0.881247
0.705718 0.662545 0.110113
0.976939 0.946686 0.201750
0.281506 0.595692 0.166250
0.876299 0.818844 0.897122
0.516875 0.897060 0.392161
0.029473 0.543641 0.701864
0.987406 0.400627 0.924990
0.099789 0.321285 0.068364
0.473308 0.437673 0.198298
0.806289 0.197585 0.617686
0.961647 0.735502 0.302696
0.608583 0.827422 0.469058
0.438793 0.554275 0.758165
0.848041 0.479797 0.027790
0.301898 0.531730 0.457543
0.590074 0.465861 0.798830
0.319907 0.530814 0.461563
0.620983 0.175154 0.615104
0.802467 0.439673 0.176252
0.771892 0.788147 0.250531
0.478082 0.074087 0.515529
0.183702 0.227393 0.956386
0.331922 0.114278 0.765179
0.209253 0.732730 0.102383
0.893095 0.450263 0.440582
0.417043 0.273742 0.362026

POINT_DATA 1000
SCALARS point_scalars float
LOOKUP_TABLE default
0.469117
0.409143
0.644454
0.854611
0.636433
0.532187
0.852098
0.700034
0.531560
0.802404
0.818056
0.686098
0.420074
0.040057
0.071776
0.558315
0.266383
0.212189
0.812211
0.489032
0.921348
0.697400
0.203389
0.362887
0.524623
0.560288
0.382430
0.185102
0.341913
0.411729
0.479780
0.458164
0.956663
0.606310
0.663273
0.942319
0.888722
0.244725
0.908956
0.327208
0.574199
0.004795
0.714528
0.825994
0.662337
0.172719
0.091588
0.790973
0.262371
0.366241
0.979367
0.216649
0.579982
0.779771
0.376764
0.457895
0.746665
0.130568
0.883785
0.527658
0.303505
0.795459
0.842633
0.803264
0.618076
0.031727
0.195162
0.717323
0.099653
0.201635
0.652091
0.538900
0.768639
0.247449
0.055034
0.742426
0.806380
0.816500
0.369735
0.608030
0.233561
0.983297
0.579602
0.554545
0.282814
0.489550
0.593217
0.727632
0.163136
0.825423
0.284072
0.771503
0.257705
0.708220
0.315462
0.634877
0.761638
0.612190
0.867684
0.660493
0.119330
0.209100
0.427616
0.465355
0.416391
0.437520
0.913505
0.974693
0.107068
0.487982
0.866439
0.822391
0.414749
0.600888
0.853526
0.318226
0.466630
0.075315
0.676324
0.158735
0.647696
0.379837
0.415101
0.943661
0.884048
0.834578
0.168208
0.329977
0.082737
0.164818
0.076978
0.982187
0.768461
0.575110
0.756608
0.477662
0.493555
0.761735
0.308544
0.273903
0.614766
0.168617
0.930217
0.137314
0.853761
0.602940
0.102455
0.520806
0.572604
0.204895
0.306932
0.419891
0.741585
0.917476
0.399488
0.077913
0.472463
0.249822
0.085336
0.893167
0.784190
0.888748
0.015917
0.083571
0.713152
0.291316
0.437060
0.952844
0.414976
0.428737
0.078859
0.935466
0.290532
0.823294
0.162521
0.962299
0.064007
0.285048
0.995625
0.264948
0.976423
0.041582
0.475524
0.024729
0.044538
0.573826
0.787088
0.806930
0.007491
0.264892
0.411049
0.361662
0.366885
0.045272
0.644022
0.324485
0.604296
0.559358
0.701777
0.535233
0.556239
0.925753
0.835441
0.784446
0.910096
0.424672
0.979269
0.210189
0.356662
0.424249
0.712246
0.220617
0.220112
0.701813
0.399566
0.629272
0.894610
0.159685
0.367116
0.227902
0.645096
0.953814
0.338426
0.786071
0.963472
0.971575
0.738636
0.673022
0.596517
0.760767
0.766465
0.911973
0.744823
0.934837
0.013747
0.379444
0.190886
0.724612
0.607487
0.720768
0.835806
0.543846
0.261406
0.163685
0.224707
0.902858
0.389699
0.769628
0.294354
0.516846
0.467875
0.642246
0.188682
0.822358
0.770257
0.062234
0.337213
0.713118
0.949583
0.497499
0.450176
0.016410
0.424607
0.142892
0.287828
0.396538
0.631211
0.411300
0.289294
0.434978
0.525554
0.379161
0.647437
0.161322
0.712396
0.025718
0.285460
0.654835
0.543336
0.155426
0.700506
0.152603
0.297383
0.855311
0.582647
0.426160
0.703749
0.219117
0.136986
0.838782
0.819110
0.077901
0.638845
0.437213
0.706876
0.688772
0.829146
0.416544
0.749750
0.056397
0.031578
0.391217
0.455822
0.183077
0.946727
0.256326
0.900655
0.909519
0.197159
0.452315
0.874643
0.438822
0.052579
0.071434
0.786023
0.042143
0.562780
0.665362
0.500462
0.630214
0.945585
0.744963
0.098798
0.136924
0.916149
0.188978
0.072461
0.715541
0.404507
0.323471
0.587467
0.121896
0.015489
0.956906
0.948105
0.081887
0.349282
0.682228
0.178300
0.857169
0.062232
0.724511
0.439723
0.144687
0.826997
0.553930
0.784687
0.503703
0.469817
0.061160
0.109446
0.375643
0.127266
0.517587
0.583049
0.210095
0.019746
0.305134
0.927804
0.159481
0.151986
0.951883
0.229251
0.639218
0.849925
0.812060
0.348471
0.885606
0.357826
0.131696
0.851004
0.750216
0.735730
0.031071
0.660504
0.112372
0.354843
0.941191
0.609123
0.661188
0.256640
0.382639
0.428800
0.897901
0.324518
0.179057
0.323211
0.720152
0.243504
0.270640
0.955533
0.914392
0.013614
0.567301
0.944090
0.976407
0.691888
0.772376
0.184833
0.201103
0.930824
0.327479
0.880973
0.747858
0.441696
0.670344
0.170720
0.605593
0.176587
0.537385
0.965728
0.211097
0.234130
0.433238
0.032612
0.764971
0.768286
0.334912
0.145279
0.681249
0.187885
0.615477
0.359919
0.481896
0.255591
0.179971
0.453963
0.597644
0.169317
0.470523
0.068407
0.767548
0.234708
0.140209
0.900343
0.602860
0.341011
0.127261
0.757147
0.124042
0.071028
0.282104
0.817439
0.411313
0.074942
0.090783
0.225239
0.554484
0.861245
0.994293
0.594060
0.201695
0.024590
0.583535
0.613353
0.624306
0.348723
0.700607
0.567866
0.639996
0.919856
0.128666
0.433640
0.598035
0.490426
0.829604
0.451997
0.316467
0.531480
0.616020
0.609471
0.791059
0.543708
0.494858
0.913196
0.971488
0.241350
0.884946
0.329522
0.944781
0.035674
0.425917
0.916538
0.568460
0.115197
0.962830
0.821599
0.412118
0.497566
0.358027
0.267152
0.964936
0.051479
0.971099
0.607467
0.677332
0.798297
0.726737
0.583743
0.498286
0.854532
0.064155
0.082471
0.885432
0.918280
0.434414
0.872663
0.593433
0.793381
0.892107
0.426061
0.860533
0.946964
0.874870
0.395138
0.728287
0.243566
0.132614
0.727029
0.677527
0.209233
0.332619
0.188469
0.552522
0.505279
0.341526
0.275863
0.736104
0.058116
0.398665
0.311864
0.677413
0.406075
0.931740
0.470256
0.433718
0.266094
0.617551
0.212741
0.483121
0.292401
0.020976
0.352351
0.249032
0.097108
0.953586
0.370450
0.993395
0.564046
0.725846
0.119962
0.166491
0.913504
0.600231
0.058066
0.721032
0.182051
0.724006
0.689556
0.007732
0.550947
0.081044
0.746286
0.364706
0.830031
0.579880
0.936057
0.303397
0.462053
0.277563
0.960264
0.809871
0.677074
0.202363
0.912050
0.906692
0.994903
0.839314
0.711104
0.324099
0.845139
0.009578
0.997792
0.732240
0.599347
0.538154
0.306833
0.004795
0.949406
0.475619
0.586148
0.447856
0.852627
0.444160
0.983499
0.259845
0.711944
0.110182
0.579580
0.291629
0.164981
0.372139
0.943863
0.093519
0.981979
0.471491
0.929921
0.039662
0.808848
0.235871
0.300048
0.416846
0.034038
0.715821
0.750132
0.563725
0.341478
0.430768
0.319719
0.385713
0.368297
0.464261
0.094526
0.482810
0.904473
0.514636
0.567770
0.009808
0.451126
0.861300
0.382315
0.737843
0.048184
0.207749
0.839399
0.979070
0.063498
0.002806
0.545898
0.100255
0.614576
0.240655
0.855887
0.059132
0.162410
0.834087
0.738011
0.567278
0.223775
0.532218
0.643457
0.940989
0.035752
0.974066
0.367811
0.629673
0.695935
0.421529
0.301663
0.446241
0.131669
0.045749
0.708117
0.275975
0.244213
0.718408
0.720318
0.857925
0.236861
0.275616
0.849212
0.873794
0.145945
0.380004
0.107572
0.455148
0.638931
0.463151
0.817361
0.334955
0.935676
0.735113
0.464909
0.077105
0.537150
0.614754
0.616249
0.405347
0.510533
0.874800
0.934289
0.206930
0.634039
0.121826
0.939562
0.335874
0.487495
0.081460
0.670280
0.743592
0.334427
0.072737
0.139339
0.437648
0.905183
0.567793
0.672106
0.899892
0.133914
0.266533
0.876428
0.906954
0.920062
0.780707
0.984607
0.233968
0.234281
0.400391
0.051387
0.717143
0.019140
0.307303
0.239705
0.439672
0.476527
0.146607
0.439117
0.811512
0.832421
0.550212
0.653117
0.178157
0.171504
0.077615
0.901969
0.692370
0.932034
0.372447
0.403755
0.531944
0.259875
0.593122
0.884196
0.134549
0.410527
0.846868
0.219794
0.274532
0.483368
0.193496
0.207263
0.654083
0.187233
0.650150
0.917518
0.603652
0.858785
0.759841
0.707260
0.507818
0.712808
0.848182
0.168694
0.329963
0.023817
0.353025
0.582684
0.944920
0.318187
0.353983
0.651727
0.448243
0.680947
0.412408
0.314003
0.220704
0.866396
0.488020
0.828213
0.588307
0.514214
0.790820
0.536659
0.540916
0.472331
0.878631
0.463690
0.827380
0.320236
0.385481
0.488773
0.669728
0.089108
0.166193
0.905482
0.964567
0.331714
0.853989
0.642028
0.780885
0.430460
0.085765
0.949300
0.205439
0.602627
0.257113
0.882773
0.941585
0.825478
0.940409
0.194482
0.283395
0.315326
0.968271
0.154628
0.680967
0.125902
0.862430
0.466811
0.847899
0.177962
0.880595
0.662007
0.896685
0.883216
0.704578
0.910245
0.549038
0.663517
0.323630
0.271225
0.679737
0.947724
0.002488
0.080122
0.482507
0.253153
0.890251
0.096220
0.191254
0.867691
0.692547
0.168737
0.714167
0.433869
0.057362
0.043029
0.121859
0.265252
0.638926
0.906968
0.165018
0.844838
0.443215
0.867863
0.148634
0.267949
0.718126
0.517160
0.231083
0.140019
0.048693
0.232753
0.440181
0.073600
0.490151
0.726042
0.121608
0.201961
0.490957
0.240724
0.462494
0.030895
0.282079
0.067547
0.387223
0.901122
0.095273
0.532540
0.057147
0.515577
0.014206
0.275607
0.215634
0.015940
0.154294
0.003135
0.274407
0.970908
0.846915
0.594358
0.642049
0.702132
0.665199
0.615971
0.024638
0.909404
0.032222
0.077295
0.698000
0.581940
0.567347
0.152796
0.629939
0.991189
0.588785
0.923524
0.989940
0.801314
0.332381
0.835515
0.291769
0.447695
0.666216
0.126699
0.644223
0.888922
0.461060
0.025119
0.749104
0.850129
0.631640
0.003415
0.708822
0.096577
0.292010
0.810167
0.870917
0.868808
0.812799
0.676370
0.361263
0.695379
0.499745
0.374357
0.636813
0.062112
0.953460
0.772874
0.952009
0.617580
0.857626
0.848997
0.017010
0.904152
0.962321
0.707575
0.299003
0.861149
0.184496
0.713365
0.887058
0.715437
0.947821
0.031713
0.180193
0.825575
0.506904
0.517166
0.242738
0.702856
0.135629
0.129735
0.461054
0.112482
0.196500
0.191496
0.323271
0.865445
0.064748
0.078390
0.227671
0.045626
0.477106
0.901155
0.448711
0.019708
0.520092
0.859242
0.260550
0.553890
0.805551
0.402937
0.133618
0.266882
0.086884
0.110452
0.417604
0.144009
0.646773
0.424095
0.062252
0.020487
0.846182
0.616655
0.653827
0.291004
0.512279
0.224942
0.128134

